:1000000019C020C01FC01EC01DC01CC01BC01AC00C
:1000100019C018C017C016C015C014C013C012C034
:1000200011C010C00FC00EC00DC00CC00BC00AC064
:1000300009C008C011241FBECFEFD4E0DEBFCDBF82
:1000400002D018C0DDCF8AEF8AB98FE087B99FEF61
:1000500094B91BB818B885B981E88093800083E013
:100060008093810088E290E09093890080938800DB
:08007000A895FECFF894FFCF24
:00000001FF
