
		/*	スキャンタイムフリッカー（1.5秒後にON）	*/

		|                           |
		|--|X0|--/M0|-----------(M0)|
		|--|M0|----------[C0:750,X3]|
		|                           |
		|--|C0|-----------------(Y1)|
		|                           |
