:1000000019C020C01FC01EC01DC01CC01BC01AC00C
:1000100019C018C017C016C015C014C013C012C034
:1000200011C010C00FC00EC00DC00CC00BC00AC064
:1000300009C008C011241FBECFEFD4E0DEBFCDBF82
:1000400002D010C0DDCF88E08AB928E080E090E0DF
:10005000A8950196803D37E09307D1F78BB18227B1
:080060008BB9F4CFF894FFCF37
:00000001FF
